{
  "id": "e9f1dc12-9f5b-4d20-a958-0a03d62435be",
  "schema": "https://metadata.datadrivendiscovery.org/schemas/v0/pipeline.json",
  "created": "2019-04-24T19:16:15.451143Z",
  "context": "TESTING",
  "inputs": [{"name": "inputs"}],
  "outputs": [
    {
      "data": "steps.0.produce",
      "name": "output predictions"
    }
  ],
  "steps": [
    {
      "type": "PRIMITIVE",
      "primitive": {
        "id": "77bf4b92-2faa-3e38-bb7e-804131243a7f",
        "version": "2.0.3",
        "python_path": "d3m.primitives.clustering.k_means.Sloth",
        "name": "Sloth"
      },
      "arguments": {
        "inputs": {
          "type": "CONTAINER",
          "data": "inputs.0"
        },
        "outputs": {
          "type": "CONTAINER",
          "data": "inputs.0"
        }
      },
      "outputs": [
        {
          "id": "produce"
        }],
      "hyperparams": {
        "nclusters": {
          "type": "VALUE",
          "data": 4
        }
      }
    }
  ]
}