{
  "context": "TESTING",
  "created": "2019-03-04T03:30:03.425909Z",
  "digest": "07793c8dbf7a0a118c91fa010a0aa9b61fe035c7f430de64e4332256a4c26ce6",
  "id": "9a3b09b5-a445-45f7-830f-0ca32b22abb3",
  "inputs": [
    {
      "name": "inputs"
    }
  ],
  "outputs": [
    {
      "data": "steps.9.produce",
      "name": "output predictions"
    }
  ],
  "schema": "https://metadata.datadrivendiscovery.org/schemas/v0/pipeline.json",
  "steps": [
    {
      "arguments": {
        "inputs": {
          "data": "inputs.0",
          "type": "CONTAINER"
        }
      },
      "outputs": [
        {
          "id": "produce"
        }
      ],
      "primitive": {
        "digest": "caac540e94f496d283048d08a65016b482d53d2acdca0efc60dd6724b2190b60",
        "id": "4b42ce1e-9b98-4a25-b68e-fad13311eb65",
        "name": "Extract a DataFrame from a Dataset",
        "python_path": "d3m.primitives.data_transformation.dataset_to_dataframe.Common",
        "version": "0.3.0"
      },
      "type": "PRIMITIVE"
    },
    {
      "arguments": {
        "inputs": {
          "data": "steps.0.produce",
          "type": "CONTAINER"
        }
      },
      "hyperparams": {
        "parse_semantic_types": {
          "data": [
            "http://schema.org/Boolean",
            "http://schema.org/Integer",
            "http://schema.org/Float",
            "https://metadata.datadrivendiscovery.org/types/FloatVector",
            "http://schema.org/DateTime"
          ],
          "type": "VALUE"
        }
      },
      "outputs": [
        {
          "id": "produce"
        }
      ],
      "primitive": {
        "digest": "52a87a866b90d469bc1d7e8f226091edaabbd45e8b4e44701e5d15f5e405a63c",
        "id": "d510cb7a-1782-4f51-b44c-58f0236e47c7",
        "name": "Parses strings into their types",
        "python_path": "d3m.primitives.data_transformation.column_parser.Common",
        "version": "0.5.0"
      },
      "type": "PRIMITIVE"
    },
    {
      "arguments": {
        "inputs": {
          "data": "steps.0.produce",
          "type": "CONTAINER"
        }
      },
      "hyperparams": {
        "semantic_types": {
          "data": [
            "https://metadata.datadrivendiscovery.org/types/TrueTarget"
          ],
          "type": "VALUE"
        }
      },
      "outputs": [
        {
          "id": "produce"
        }
      ],
      "primitive": {
        "digest": "1daf8b0c4786ee027bb4e3f39fe4dd95588bcf436c4a1d8de12a47e5d3d77e3f",
        "id": "4503a4c6-42f7-45a1-a1d4-ed69699cf5e1",
        "name": "Extracts columns by semantic type",
        "python_path": "d3m.primitives.data_transformation.extract_columns_by_semantic_types.Common",
        "version": "0.2.0"
      },
      "type": "PRIMITIVE"
    },
    {
      "arguments": {
        "inputs": {
          "data": "steps.1.produce",
          "type": "CONTAINER"
        }
      },
      "hyperparams": {
        "semantic_types": {
          "data": [
            "http://schema.org/Integer",
            "http://schema.org/Float"
          ],
          "type": "VALUE"
        }
      },
      "outputs": [
        {
          "id": "produce"
        }
      ],
      "primitive": {
        "digest": "1daf8b0c4786ee027bb4e3f39fe4dd95588bcf436c4a1d8de12a47e5d3d77e3f",
        "id": "4503a4c6-42f7-45a1-a1d4-ed69699cf5e1",
        "name": "Extracts columns by semantic type",
        "python_path": "d3m.primitives.data_transformation.extract_columns_by_semantic_types.Common",
        "version": "0.2.0"
      },
      "type": "PRIMITIVE"
    },
    {
      "arguments": {
        "inputs": {
          "data": "steps.1.produce",
          "type": "CONTAINER"
        }
      },
      "hyperparams": {
        "semantic_types": {
          "data": [
            "https://metadata.datadrivendiscovery.org/types/CategoricalData"
          ],
          "type": "VALUE"
        }
      },
      "outputs": [
        {
          "id": "produce"
        }
      ],
      "primitive": {
        "digest": "1daf8b0c4786ee027bb4e3f39fe4dd95588bcf436c4a1d8de12a47e5d3d77e3f",
        "id": "4503a4c6-42f7-45a1-a1d4-ed69699cf5e1",
        "name": "Extracts columns by semantic type",
        "python_path": "d3m.primitives.data_transformation.extract_columns_by_semantic_types.Common",
        "version": "0.2.0"
      },
      "type": "PRIMITIVE"
    },
    {
      "arguments": {
        "inputs": {
          "data": "steps.3.produce",
          "type": "CONTAINER"
        }
      },
      "hyperparams": {
        "return_result": {
          "data": "replace",
          "type": "VALUE"
        }
      },
      "outputs": [
        {
          "id": "produce"
        }
      ],
      "primitive": {
        "digest": "4021d93b43e7ad6718f3229073d8c434e6d55f7539027bc769191646b8c015b2",
        "id": "26fc8fd3-f6b2-4c65-8afb-edb54ed2a3e4",
        "name": "Label encoder with an unseen category",
        "python_path": "d3m.primitives.data_preprocessing.label_encoder.Common",
        "version": "0.2.0"
      },
      "type": "PRIMITIVE"
    },
    {
      "arguments": {
        "left": {
          "data": "steps.4.produce",
          "type": "CONTAINER"
        },
        "right": {
          "data": "steps.3.produce",
          "type": "CONTAINER"
        }
      },
      "outputs": [
        {
          "id": "produce"
        }
      ],
      "primitive": {
        "digest": "9532763f152607bf6fdf286ff3a795d6ef5b7d6152c473108d5434656326cb30",
        "id": "aff6a77a-faa0-41c5-9595-de2e7f7c4760",
        "name": "Concatenate two dataframes",
        "python_path": "d3m.primitives.data_transformation.horizontal_concat.DataFrameCommon",
        "version": "0.2.0"
      },
      "type": "PRIMITIVE"
    },
    {
      "arguments": {
        "inputs": {
          "data": "steps.7.produce",
          "type": "CONTAINER"
        },
        "outputs": {
          "data": "steps.2.produce",
          "type": "CONTAINER"
        }
      },
      "hyperparams": {
        "return_result": {
          "data": "replace",
          "type": "VALUE"
        }
      },
      "outputs": [
        {
          "id": "produce"
        }
      ],
      "primitive": {
        "digest": "5f19768669ad850d70cd3a53fca77ab996413c4e83a4e05d13b07f3e13e7e417",
        "id": "259aa747-795c-435e-8e33-8c32a4c83c6b",
        "name": "LightGBM GBTree classifier",
        "python_path": "d3m.primitives.classification.light_gbm.Common",
        "version": "0.1.0"
      },
      "type": "PRIMITIVE"
    },
    {
      "arguments": {
        "inputs": {
          "data": "steps.8.produce",
          "type": "CONTAINER"
        },
        "reference": {
          "data": "steps.0.produce",
          "type": "CONTAINER"
        }
      },
      "outputs": [
        {
          "id": "produce"
        }
      ],
      "primitive": {
        "digest": "d9d7eef5765585465952be2c7a5892f2bd473fd9ccc937ab9cadf19b31b44d96",
        "id": "8d38b340-f83f-4877-baaa-162f8e551736",
        "name": "Construct pipeline predictions output",
        "python_path": "d3m.primitives.data_transformation.construct_predictions.Common",
        "version": "0.3.0"
      },
      "type": "PRIMITIVE"
    }
  ]
}